900514 499581 525
941205 695160 525
999173 87375 525
679878 814220 504
264896 282162 407
148550 673423 509
652011 178795 509
700701 415741 509
877251 516584 525
735198 832602 468
358857 663241 509
236491 693358 509
211561 647810 509
122522 548836 470
458374 39499 449
65832 507486 449
653301 545889 509
804193 881705 525
694549 871160 525
81614 525649 470
952403 819532 525
800176 838113 525
684008 162115 509
226863 484961 449
354989 738070 509
569614 659909 509
837635 393168 509
99139 974907 525
911131 714136 525
649984 453048 509
699239 282512 509
27293 326495 443
920504 219884 525
873706 616446 525
768974 735203 468
774443 989483 525
823643 116728 509
273753 392593 441
984390 620984 525
594907 496987 470
74678 531926 470
8477 716077 509
974528 396946 525
787637 77753 509
405293 202491 443
250370 341064 407
460489 666370 509
526907 459278 470
388492 858033 525
351571 58160 443
891206 79886 525
938975 919940 476
933550 571568 525
76370 187665 383
688131 480566 509
742557 575676 509
679156 829996 504
994713 930967 507
480359 430909 444
422510 739412 509
644305 388901 509
730080 175108 509
481433 491323 382
758203 830845 468
40837 546685 470
877105 169631 525
11054 210643 383
909610 413897 525
143070 282853 443
850122 666459 525
248593 39388 443
583796 737306 509
705229 963367 525
595433 775123 509
500154 31990 449
579941 236586 470
164589 244738 443
286955 369922 441
315094 577268 470
642518 722869 504
336364 358023 441
161891 664818 509
837774 717141 468
447146 337115 449
242122 583664 470
190219 755638 509
74212 206971 383
857490 615410 525
382060 288236 441
858991 945759 507
180813 872594 525
832014 339543 509
719781 496786 509
957335 150566 525
648320 525042 509
536802 488752 470
301782 263711 407
857476 912994 476
371933 277660 441
889773 887227 401
891483 834019 525
449915 45105 449
314170 103996 443
683045 856353 525
25372 449317 449
658764 804561 504
703720 104047 509
938921 848675 476
491412 788328 509
14793 443667 449
623573 60079 470
158256 253235 443
97373 686558 509
366969 66269 443
408955 124042 443
486543 593241 470
875726 311542 525
691503 969467 525
518239 932035 525
803063 525148 509
499286 128551 449
849987 850075 264
211688 99785 383
476439 41122 449
464684 42948 449
298509 588249 470
992232 201327 525
302483 355664 441
672122 959770 525
862522 699199 525
668029 486004 509
943527 463164 525
774646 57771 509
202662 865025 525
527243 501899 470
367454 753012 509
981257 456813 525
305399 625096 470
989450 498377 525
928609 163244 525
727594 456759 509
131806 25119 354
192247 549836 470
106422 485578 449
635455 754414 504
265382 980339 525
370303 558377 470
64437 35385 340
31089 548520 470
712000 688853 504
177735 144389 383
564413 483712 470
248173 266816 407
325 308710 443
512381 593022 452
413468 377855 449
551810 691473 509
738553 833516 468
545057 496621 470
910503 724298 525
458323 313028 449
417990 968461 525
117709 621850 470
937144 718491 525
131686 70360 354
248497 74135 443
924017 178370 525
187039 312852 443
549745 242575 470
659012 97634 509
705214 104018 509
311431 798251 509
347046 240960 441
233032 391829 441
366208 309365 441
969338 573808 525
850055 263151 525
557720 901342 525
338616 683225 509
338326 646564 509
352294 124430 443
25332 346293 443
530340 232446 470
34104 261531 443
138071 264851 443
275817 829596 509
176356 228111 386
386157 805134 509
105352 547833 470
734741 361562 509
567179 140297 470
473196 963030 525
336431 487381 449
791837 339989 509
662904 222011 509
659863 319284 509
265809 299258 407
433015 361061 449
220762 464142 449
307278 936169 525
124153 756012 509
4576 194466 383
322550 147912 443
485848 699136 509
877829 779916 525
525413 445242 470
848588 456591 525
900493 324641 525
493843 679466 509
196960 970147 525
604116 98046 470
